<svg width="18" height="18" viewBox="0 0 18 18" fill="none" xmlns="http://www.w3.org/2000/svg">
<path d="M1 7.36398L9.67419 8.58947L10.8995 17.2634L17.2634 1L1 7.36398Z" stroke="#E8DECD" stroke-linejoin="bevel"/>
</svg>
